Imaging assays (tidy) • tidySpatialWorkshop2025
…
This dataset have been annotated for regions. Let’s have a look how
many regions have been annotated

tx_small |> 
  distinct(region)

## # A tibble: 146 × 1
##    region      
##    <chr>       
##  1 NA          
##  2 fiber tracts
##  3 LZ          
##  4 TEa5        
##  5 CTXsp       
##  6 VPM         
##  7 SSp-bfd5    
##  8 cc          
##  9 ENTl5       
## 10 SSp         
## # ℹ 136 more rows
…
